Report
…
a@forecast_data
#> # A tibble: 40 x 18
#>    Time  Temperature Temp_min Temp_max Pressure Sea_Level Ground_Level
#>    <chr>       <dbl>    <dbl>    <dbl>    <dbl>     <dbl>        <dbl>
#>  1 2019~        292.     287.     292.    1011.     1011.        1000.
#>  2 2019~        289.     285.     289.    1011.     1011.        1000.
#>  3 2019~        287.     285.     287.    1012.     1012.        1000.
#>  4 2019~        286.     285.     286.    1012.     1012.        1000.
#>  5 2019~        284.     284.     284.    1011.     1011.        1000.
#>  6 2019~        284.     284.     284.    1012.     1012.        1000.
#>  7 2019~        284.     284.     284.    1013.     1013.        1001.
#>  8 2019~        284.     284.     284.    1013.     1013.        1002.
#>  9 2019~        284.     284.     284.    1015.     1015.        1003.
#> 10 2019~        284.     284.     284.    1016.     1016.        1004.
#> # ... with 30 more rows, and 11 more variables: Humidity <int>,
#> #   temp_kf <dbl>, Wind_Speed <dbl>, Wind_Direction <dbl>,
#> #   Cloudcover <int>, Description <chr>, City <chr>, Latitude <dbl>,
#> #   Longitude <dbl>, rain3h <list>, zip <dbl>
…
#>  [4] "latitude"             "longitude"            "radius_ref"          
#>  [7] "cities_within_radius" "forecast_data"        "current_data"        
#> [10] "twitter_data"
b@primary_city
#> [1] "Stanford"
b@state
#> [1] "CA"
b@zip
#> [1] "94305"
b@latitude
#> [1] 37.42704
b@longitude
#> [1] -122.165
b@cities_within_radius
#> # A tibble: 49 x 6
#>    zip   city       state latitude longitude Distance
#>    <chr> <chr>      <chr>    <dbl>     <dbl>    <dbl>
#>  1 94002 Belmont    CA        37.5     -122.     9.25
#>  2 94003 Belmont    CA        37.4     -122.     9.85
#>  3 94011 Burlingame CA        37.4     -122.     9.85
#>  4 94012 Burlingame CA        37.4     -122.     9.85
#>  5 94016 Daly City  CA        37.4     -122.     9.85
#>  6 94017 Daly City  CA        37.4     -122.     9.85
#>  7 94022 Los Altos  CA        37.4     -122.     4.11
#>  8 94024 Los Altos  CA        37.4     -122.     6.62
#>  9 94025 Menlo Park CA        37.5     -122.     1.99
#> 10 94026 Menlo Park CA        37.4     -122.     9.85
#> # ... with 39 more rows
a@forecast_data
#> # A tibble: 40 x 18
#>    Time  Temperature Temp_min Temp_max Pressure Sea_Level Ground_Level
#>    <chr>       <dbl>    <dbl>    <dbl>    <dbl>     <dbl>        <dbl>
#>  1 2019~        292.     287.     292.    1011.     1011.        1000.
#>  2 2019~        289.     285.     289.    1011.     1011.        1000.
#>  3 2019~        287.     285.     287.    1012.     1012.        1000.
#>  4 2019~        286.     285.     286.    1012.     1012.        1000.
#>  5 2019~        284.     284.     284.    1011.     1011.        1000.
#>  6 2019~        284.     284.     284.    1012.     1012.        1000.
#>  7 2019~        284.     284.     284.    1013.     1013.        1001.
#>  8 2019~        284.     284.     284.    1013.     1013.        1002.
#>  9 2019~        284.     284.     284.    1015.     1015.        1003.
#> 10 2019~        284.     284.     284.    1016.     1016.        1004.
#> # ... with 30 more rows, and 11 more variables: Humidity <int>,
#> #   temp_kf <dbl>, Wind_Speed <dbl>, Wind_Direction <dbl>,
#> #   Cloudcover <int>, Description <chr>, City <chr>, Latitude <dbl>,
#> #   Longitude <dbl>, rain3h <list>, zip <dbl>

To see a sample of this type of output simply assign sampleStanford10mile to a variable and explore that object. You can, for instance, access the cities within the radius by checking that slot.

sd <- sampleStanford10mile
sd@cities_within_radius
#> # A tibble: 49 x 6
#>    zip   city       state latitude longitude Distance
#>    <chr> <chr>      <chr>    <dbl>     <dbl>    <dbl>
#>  1 94002 Belmont    CA        37.5     -122.     9.25
#>  2 94003 Belmont    CA        37.4     -122.     9.85
#>  3 94011 Burlingame CA        37.4     -122.     9.85
#>  4 94012 Burlingame CA        37.4     -122.     9.85
#>  5 94016 Daly City  CA        37.4     -122.     9.85
#>  6 94017 Daly City  CA        37.4     -122.     9.85
#>  7 94022 Los Altos  CA        37.4     -122.     4.11
#>  8 94024 Los Altos  CA        37.4     -122.     6.62
#>  9 94025 Menlo Park CA        37.5     -122.     1.99
#> 10 94026 Menlo Park CA        37.4     -122.     9.85
#> # ... with 39 more rows
…
